<?xml version="1.0" encoding="UTF-8"?>
<svg width="125px" height="125px" viewBox="0 0 125 125" version="1.1" xmlns="http://www.w3.org/2000/svg" xmlns:xlink="http://www.w3.org/1999/xlink">
    <!-- Generator: Sketch 63.1 (92452) - https://sketch.com -->
    <title>dissent</title>
    <desc>Created with Sketch.</desc>
    <defs>
        <linearGradient x1="50%" y1="-93.6126632%" x2="50%" y2="188.717578%" id="linearGradient-1">
            <stop stop-color="#EEB5C9" offset="0%"></stop>
            <stop stop-color="#877DFF" offset="100%"></stop>
        </linearGradient>
    </defs>
    <g id="dissent" stroke="none" stroke-width="1" fill="none" fill-rule="evenodd">
        <g id="noun_Borg_14249" transform="translate(10.000000, 13.000000)" fill-rule="nonzero">
            <circle id="Oval" fill="url(#linearGradient-1)" cx="71.5" cy="53.5" r="6.5"></circle>
            <path d="M56.2008243,0.375 C67.2253412,0.375 76.7192785,4.25076269 82.9236527,11.3102851 C89.2147872,18.4680428 92.0240613,28.5893794 91.1568651,40.7198359 C93.5554794,42.104482 95.3771859,43.9501184 96.648659,46.3516633 C97.9059131,48.7263515 98.625,51.6436645 98.625,54.8541127 C98.625,57.9989861 97.2940969,60.9493959 95.3641358,63.4340343 C92.9956131,66.4832783 89.7208388,68.8358515 86.8375591,69.9849885 C85.2969938,78.2521325 81.2284747,84.4379189 76.3667444,88.9664965 C69.3232582,95.5273241 60.6111102,98.625 56.2008243,98.625 C52.8197598,98.625 45.7510589,96.4213143 39.2377651,91.6431263 C34.6642148,88.2879448 30.3624818,83.6585612 27.8026447,77.6104603 L27.8026447,77.6104603 L25.9389284,77.6104603 C23.26576,77.6104603 20.4502564,75.5787139 18.2185181,72.183567 C16.1078444,68.9725959 14.5206716,64.5298505 14.0618292,59.3156468 C11.3784978,58.2181817 8.75550866,56.7978136 6.45964453,54.6480115 C2.41164289,50.8607938 0.375,45.4727595 0.375,38.6455737 C0.375,31.5692271 3.11201955,23.7264228 9.79185843,17.3294197 C15.2751312,12.0783181 23.4082962,7.80519359 34.8472992,5.70765833 C35.2831429,5.62731609 35.7117414,5.64236761 36.1268982,5.70414306 C41.9178378,2.21001797 48.712864,0.375 56.2008243,0.375 Z M56.2008243,7.3109883 C47.2207436,7.3109883 39.8788614,10.1401294 34.9568709,15.7118965 C31.6319783,19.4731479 29.5078215,25.1501732 28.6309061,29.8149995 L30.2618958,29.8149995 C31.2255923,29.8149995 32.1296992,30.6454472 33.1658877,31.5308789 C34.7026849,32.8440848 36.4855783,34.3308564 38.9078306,34.3308564 L42.3330803,34.3309807 C43.1679092,34.3311712 43.2608527,34.331649 43.3110594,34.3328412 C44.0667284,34.3682137 45.2002464,34.9194049 46.3799158,36.0359299 C47.3542494,36.9581102 48.3533461,38.2670949 49.2075347,40.0139541 C50.5318884,42.7223243 51.5035401,46.4741472 51.5039809,51.4616084 C51.5039809,58.2993545 50.5412667,63.1394761 49.2243285,66.4917118 C48.3777117,68.6467554 47.3873382,70.1795025 46.4170185,71.2264122 C45.1867343,72.5538061 44.0019321,73.0946035 43.2330461,73.0946035 L38.9089547,73.0946035 C37.1607926,73.0946035 35.7782308,73.7323498 34.4684395,75.0338473 C36.4870245,79.5494725 39.7664124,83.0799505 43.2155241,85.6877283 C48.3973649,89.6055747 53.9574534,91.428221 56.2008243,91.428221 C58.9442885,91.428221 66.7733703,88.583111 72.7123992,82.4281817 C76.4368744,78.5683113 79.415249,73.416717 79.9306036,66.8776916 C80.0027696,65.9593952 80.4206885,65.1457739 81.0501006,64.5617698 C81.6789004,63.9783338 82.5188332,63.6240906 83.4689772,63.622615 C84.5204305,63.5290645 87.1702382,61.9722623 89.1565697,59.8207278 C90.5465658,58.3151259 91.5929506,56.5356284 91.5934339,54.8192204 C91.5934339,52.7087873 91.1212281,50.9275081 90.4227329,49.6356868 C90.0216827,48.8939706 89.5444395,48.3108452 89.0381595,47.9100822 C88.4883003,47.4748228 87.9014132,47.2514839 87.3293368,47.2514839 C86.3206343,47.2514839 85.3613201,46.8066767 84.6941441,46.0478275 C84.0259685,45.2878414 83.715399,44.2601275 83.8404694,43.2551593 C85.2878331,31.6207136 83.1305145,22.1553213 77.6533633,15.9226133 C72.7477978,10.3410929 65.3356601,7.3109883 56.2008243,7.3109883 Z M41.0693143,46.5729764 C39.0698323,46.5729764 37.2595199,47.3861239 35.9493772,48.7022491 C34.640706,50.0168961 33.8310697,51.8334724 33.8310697,53.8425608 C33.8310697,55.8517834 34.6408207,57.6687639 35.9496533,58.9835731 C37.2598055,60.2997079 39.0700465,61.1127409 41.069426,61.1121455 C43.0693,61.1121455 44.8798268,60.2990492 46.1900898,58.9830187 C47.4989894,57.6683574 48.308683,55.8517221 48.308683,53.8425608 C48.308683,51.8333995 47.4989894,50.0167643 46.1900898,48.7021031 C44.8798268,47.3860726 43.0693,46.5729764 41.0693143,46.5729764 Z M26.0627274,16.3538691 C25.7366145,16.4814809 25.4071062,16.615653 25.0747041,16.756129 C19.1678981,19.2523962 15.3254565,22.4806608 12.8289503,25.7254247 C8.80426326,30.9563989 8.26981079,36.2412206 8.26981079,38.6455737 C8.26981079,43.2175836 9.48754792,46.6398331 11.8414732,48.8440259 C12.4036895,49.3700556 13.0121488,49.8038725 13.6349282,50.1740308 C13.8019504,50.273303 13.9725024,50.3694823 14.1467736,50.4617646 C14.1633849,50.2726088 14.1810115,50.0808998 14.1997675,49.8879545 C15.0727709,40.9072269 17.8306821,35.0260365 21.3553827,31.9665823 C21.8685869,26.4854525 23.2772363,21.5503945 25.5517016,17.2777626 C25.7166225,16.9679551 25.8869746,16.6599792 26.0627274,16.3538691 Z" id="Shape" stroke="#8A4222" stroke-width="0.75"></path>
        </g>
    </g>
</svg>